Name,Age,WeightClassKg,Division,AgeRange,Sex,Best3SquatKg,Best3BenchKg,Best3DeadliftKg,TotalKg,Event,Equipment,Place
Claudia Valdiviez,,44,Open,,F,125,57.5,130,312.5,SBD,Single-ply,1
Heidi Pircher,,44,Open,,F,90,45,97.5,232.5,SBD,Single-ply,2
Jill Harrison,,48,Open,,F,135,52.5,135,322.5,SBD,Single-ply,1
Ruth Benjamin,,48,Open,,F,125,55,115,295,SBD,Single-ply,2
Krystal Henry,,52,Open,,F,135,77.5,157.5,370,SBD,Single-ply,1
Brenda Droege,,52,Open,,F,132.5,72.5,155,360,SBD,Single-ply,2
R. Heldman,,52,Open,,F,117.5,67.5,132.5,317.5,SBD,Single-ply,3
L. Ballshmiede,,52,Open,,F,105,55,115,275,SBD,Single-ply,4
J. Sena,,52,Open,,F,75,45,100,220,SBD,Single-ply,5
D. Seratt,,52,Open,,F,82.5,37.5,90,210,SBD,Single-ply,6
Lee Denmon,,56,Open,,F,155,80,160,395,SBD,Single-ply,1
Mary Hetzel,,56,Open,,F,142.5,77.5,152.5,372.5,SBD,Single-ply,2
A. Scheidmall,,56,Open,,F,142.5,75,145,362.5,SBD,Single-ply,3
J. Bradley,,56,Open,,F,135,67.5,132.5,335,SBD,Single-ply,4
J. Stop,,56,Open,,F,100,75,102.5,277.5,SBD,Single-ply,5
Bettina Altizer,,60,Open,,F,182.5,92.5,165,440,SBD,Single-ply,1
K. Marbury,,60,Open,,F,155,92.5,160,407.5,SBD,Single-ply,2
C. Miller,,60,Open,,F,125,70,122.5,317.5,SBD,Single-ply,3
D. Hardy,,60,Open,,F,102.5,65,142.5,310,SBD,Single-ply,4
S. Marlin,,60,Open,,F,102.5,47.5,130,280,SBD,Single-ply,5
P. Plumb,,60,Open,,F,102.5,47.5,120,270,SBD,Single-ply,6
J. Mobley,,60,Open,,F,107.5,47.5,115,270,SBD,Single-ply,7
Joy King,,67.5,Open,,F,160,92.5,160,412.5,SBD,Single-ply,1
Cynthia Gensler,,67.5,Open,,F,137.5,80,192.5,410,SBD,Single-ply,2
C. Johnson,,67.5,Open,,F,150,75,160,385,SBD,Single-ply,3
A. Summerlin,,67.5,Open,,F,142.5,67.5,177.5,387.5,SBD,Single-ply,4
B. Miller #6,,67.5,Open,,F,145,75,155,375,SBD,Single-ply,5
L. Inman,,67.5,Open,,F,145,75,140,360,SBD,Single-ply,6
C. Brown #9,,67.5,Open,,F,135,80,142.5,357.5,SBD,Single-ply,7
C. Could,,67.5,Open,,F,130,57.5,135,322.5,SBD,Single-ply,8
A. Vasquez,,67.5,Open,,F,120,55,137.5,312.5,SBD,Single-ply,9
Grace Lewis,,75,Open,,F,182.5,110,200,492.5,SBD,Single-ply,1
Brenda Yancey,,75,Open,,F,185,105,172.5,462.5,SBD,Single-ply,2
B. Newgard,,75,Open,,F,167.5,85,142.5,395,SBD,Single-ply,3
P. Shields,,75,Open,,F,155,77.5,147.5,380,SBD,Single-ply,4
S. Harrell,,75,Open,,F,147.5,70,160,377.5,SBD,Single-ply,5
Laverne Shuler,,75,Open,,F,140,70,147.5,357.5,SBD,Single-ply,6
C. McGowan,,75,Open,,F,140,72.5,112.5,325,SBD,Single-ply,7
S. McLean,,75,Open,,F,122.5,55,122.5,300,SBD,Single-ply,8
C. Craft,,75,Open,,F,100,60,122.5,282.5,SBD,Single-ply,9
M. Webb,,75,Open,,F,67.5,52.5,115,235,SBD,Single-ply,10
Elizabeth Brill,,82.5,Open,,F,170,95,172.5,437.5,SBD,Single-ply,1
Jody Orliss,,82.5,Open,,F,162.5,82.5,160,405,SBD,Single-ply,2
J. Russow,,82.5,Open,,F,155,67.5,145,367.5,SBD,Single-ply,3
C. Edmondson,,82.5,Open,,F,127.5,80,142.5,350,SBD,Single-ply,4
N. Ulich,,82.5,Open,,F,80,42.5,92.5,215,SBD,Single-ply,5
Cadandra Gieggar,,90,Open,,F,145,70,137.5,352.5,SBD,Single-ply,1
Valerie Perry,,90+,Open,,F,192.5,110,227.5,530,SBD,Single-ply,1
Stephanie Edmondson,,90+,Open,,F,172.5,92.5,137.5,402.5,SBD,Single-ply,2
E. Esposito,,90+,Open,,F,90,52.5,145,287.5,SBD,Single-ply,3
Rodney Aulridge,,52,Pure,,M,140,92.5,177.5,410,SBD,Single-ply,1
D. Kennedy,,52,Pure,,M,155,90,152.5,397.5,SBD,Single-ply,2
J. Aragon,,52,Pure,,M,137.5,87.5,160,385,SBD,Single-ply,3
Donald Maez,,56,Pure,,M,155,102.5,195,452.5,SBD,Single-ply,1
S. Medlin,,56,Pure,,M,147.5,97.5,197.5,442.5,SBD,Single-ply,2
Johnny Oliver,,60,Pure,,M,197.5,132.5,235,565,SBD,Single-ply,1
David Pattaway,,60,Pure,,M,230,97.5,230,557.5,SBD,Single-ply,2
Jonathan Arenberg,,60,Pure,,M,205,130,215,550,SBD,Single-ply,3
C. McGuire,,60,Pure,,M,175,127.5,220,522.5,SBD,Single-ply,4
A. Mayer,,60,Pure,,M,192.5,117.5,210,520,SBD,Single-ply,5
M. Wideeman,,60,Pure,,M,197.5,105,185,487.5,SBD,Single-ply,6
J. Uhrig,,60,Pure,,M,187.5,105,187.5,480,SBD,Single-ply,7
D. Aleman,,60,Pure,,M,180,70,205,455,SBD,Single-ply,8
T. Vickers,,60,Pure,,M,165,107.5,172.5,445,SBD,Single-ply,9
Robert Trujillo,,60,Pure,,M,120,87.5,177.5,385,SBD,Single-ply,10
Felix Okafor,,67.5,Pure,,M,240,140,255,635,SBD,Single-ply,1
Keith Scisney,,67.5,Pure,,M,245,144.5,227.5,617.5,SBD,Single-ply,2
J. McElroy,,67.5,Pure,,M,227.5,142.5,235,605,SBD,Single-ply,3
Mark Sigala,,67.5,Pure,,M,217.5,127.5,242.5,587.5,SBD,Single-ply,4
L. Fleming,,67.5,Pure,,M,220,142.5,212.5,575,SBD,Single-ply,5
E. Vaughn,,67.5,Pure,,M,217.5,122.5,212.5,552.5,SBD,Single-ply,6
V. Brown,,67.5,Pure,,M,200,117.5,212.5,530,SBD,Single-ply,7
M. Waggoner,,67.5,Pure,,M,182.5,127.5,192.5,502.5,SBD,Single-ply,8
S. Afshar,,67.5,Pure,,M,182.5,117.5,180,480,SBD,Single-ply,9
K. Avery,,67.5,Pure,,M,155,112.5,182.5,450,SBD,Single-ply,10
K. Hoston,,67.5,Pure,,M,252.5,,,,SBD,Single-ply,DQ
J. Beck,,67.5,Pure,,M,,,,,SBD,Single-ply,DQ
J. Jones,,67.5,Pure,,M,122.5,,,,SBD,Single-ply,DQ
H. Stevenson,,67.5,Pure,,M,,,,,SBD,Single-ply,DQ
Kenneth Thomas,,75,Pure,,M,245,177.5,277.5,700,SBD,Single-ply,1
Clarence Wilcox,,75,Pure,,M,272.5,147.5,250,670,SBD,Single-ply,2
J. Garcia,,75,Pure,,M,242.5,140,265,647.5,SBD,Single-ply,3
C. Easton,,75,Pure,,M,260,132.5,255,647.5,SBD,Single-ply,4
Louis Zamora,,75,Pure,,M,237.5,145,255,637.5,SBD,Single-ply,5
A. McCallon,,75,Pure,,M,257.5,125,245,627.5,SBD,Single-ply,6
Tom Brinkey,,75,Pure,,M,240,142.5,230,612.5,SBD,Single-ply,7
M. Ewolddsen,,75,Pure,,M,,,,,SBD,Single-ply,DQ
Ty Stapleton,,75,Pure,,M,,,,,SBD,Single-ply,DQ
J. Moore,,75,Pure,,M,,,,,SBD,Single-ply,DQ
Curtis Payne,,82.5,Pure,,M,320,175,322.5,817.5,SBD,Single-ply,1
Donnie Cole,,82.5,Pure,,M,305,137.5,285,727.5,SBD,Single-ply,2
Adrian Serio,,82.5,Pure,,M,267.5,152.5,282.5,702.5,SBD,Single-ply,3
Mike Pilkenton,,82.5,Pure,,M,242.5,160,282.5,685,SBD,Single-ply,4
L. Rue,,82.5,Pure,,M,250,147.5,287.5,685,SBD,Single-ply,5
R. Johnson,,82.5,Pure,,M,277.5,132.5,272.5,682.5,SBD,Single-ply,6
Greg Titus,,82.5,Pure,,M,262.5,162.5,245,670,SBD,Single-ply,7
S. Mutchelknaus,,82.5,Pure,,M,242.5,137.5,267.5,647.5,SBD,Single-ply,8
B. Stusarick,,82.5,Pure,,M,227.5,172.5,260,660,SBD,Single-ply,9
M. Jackson,,82.5,Pure,,M,250,142.5,250,642.5,SBD,Single-ply,10
D. Bennett,,82.5,Pure,,M,217.5,147.5,262.5,627.5,SBD,Single-ply,11
B. Rothgery,,82.5,Pure,,M,252.5,132.5,235,620,SBD,Single-ply,12
J. Weisberg,,82.5,Pure,,M,230,132.5,240,602.5,SBD,Single-ply,13
R. Sherwood,,82.5,Pure,,M,230,127.5,230,587.5,SBD,Single-ply,14
T. Haskin,,82.5,Pure,,M,210,132.5,232.5,575,SBD,Single-ply,15
Donald Scott,,90,Pure,,M,295,192.5,290,777.5,SBD,Single-ply,1
B. Lewis,,90,Pure,,M,305,165,285,755,SBD,Single-ply,2
Willie McCoy,,90,Pure,,M,277.5,167.5,310,755,SBD,Single-ply,3
A. Trujillo,,90,Pure,,M,290,170,272.5,732.5,SBD,Single-ply,4
D. Kauf,,90,Pure,,M,282.5,167.5,275,725,SBD,Single-ply,5
E. Dorsey,,90,Pure,,M,280,170,267.5,717.5,SBD,Single-ply,6
Donald Rothgery,,90,Pure,,M,302.5,165,250,717.5,SBD,Single-ply,7
Joe Dentice,,90,Pure,,M,260,170,282.5,712.5,SBD,Single-ply,8
B. Henry,,90,Pure,,M,280,160,267.5,707.5,SBD,Single-ply,9
B. Smith,,90,Pure,,M,252.5,137.5,305,695,SBD,Single-ply,10
M. Krasnica,,90,Pure,,M,237.5,165,292.5,695,SBD,Single-ply,11
Larry Hammond,,90,Pure,,M,272.5,145,275,692.5,SBD,Single-ply,12
Roger Bergeron,,90,Pure,,M,282.5,165,242.5,690,SBD,Single-ply,13
D. Long,,90,Pure,,M,242.5,147.5,277.5,667.5,SBD,Single-ply,14
S. Davis,,90,Pure,,M,245,142.5,272.5,660,SBD,Single-ply,15
Ruven Ortiz,,90,Pure,,M,250,175,227.5,652.5,SBD,Single-ply,16
E. Betza,,90,Pure,,M,230,145,245,620,SBD,Single-ply,17
R. Morgan,,90,Pure,,M,245,120,220,585,SBD,Single-ply,18
R. Liptak,,90,Pure,,M,227.5,125,227.5,580,SBD,Single-ply,19
R. Mayle,,90,Pure,,M,215,120,237.5,572.5,SBD,Single-ply,20
E. Daniels,,90,Pure,,M,215,130,205,550,SBD,Single-ply,21
S. Korff,,90,Pure,,M,260,,,,SBD,Single-ply,DQ
S. Cook #1,,90,Pure,,M,210,,,,SBD,Single-ply,DQ
N. Wheeler,,90,Pure,,M,240,162.5,,,SBD,Single-ply,DQ
Michael Francis,,100,Pure,,M,322.5,175,305,802.5,SBD,Single-ply,1
Johnny Graham,,100,Pure,,M,320,167.5,312.5,800,SBD,Single-ply,2
Robert Puccino,,100,Pure,,M,277.5,165,262.5,705,SBD,Single-ply,3
T. Weeeks,,100,Pure,,M,282.5,155,265,702.5,SBD,Single-ply,4
R. King,,100,Pure,,M,272.5,162.5,265,700,SBD,Single-ply,5
B. Southerlin,,100,Pure,,M,247.5,175,272.5,695,SBD,Single-ply,6
R. Striggow,,100,Pure,,M,262.5,165,262.5,690,SBD,Single-ply,7
M. Graves,,100,Pure,,M,275,175,240,690,SBD,Single-ply,8
R. McCoy,,100,Pure,,M,260,162.5,247.5,670,SBD,Single-ply,9
Roger Heldman,,100,Pure,,M,277.5,162.5,222.5,662.5,SBD,Single-ply,10
T. Maloney,,100,Pure,,M,272.5,140,250,662.5,SBD,Single-ply,11
B. Cookson,,100,Pure,,M,227.5,145,250,622.5,SBD,Single-ply,12
B. Castillo,,100,Pure,,M,237.5,145,212.5,595,SBD,Single-ply,13
R. Gray,,100,Pure,,M,232.5,145,200,577.5,SBD,Single-ply,14
E. Payne,,100,Pure,,M,227.5,177.5,,,SBD,Single-ply,DQ
Kent Johnson,,100,Pure,,M,,,,,SBD,Single-ply,DQ
Maurice Smith,,110,Pure,,M,350,227.5,305,882.5,SBD,Single-ply,1
David Reece,,110,Pure,,M,332.5,237.5,292.5,862.5,SBD,Single-ply,2
Wayne Hammes,,110,Pure,,M,315,185,277.5,777.5,SBD,Single-ply,3
W. Davis,,110,Pure,,M,295,170,310,775,SBD,Single-ply,4
Scott Horning,,110,Pure,,M,297.5,200,267.5,765,SBD,Single-ply,5
R. Jones,,110,Pure,,M,285,182.5,285,752.5,SBD,Single-ply,6
T. O'Donnell,,110,Pure,,M,277.5,182.5,277.5,737.5,SBD,Single-ply,7
Jon Kaiser,,110,Pure,,M,272.5,145,310.5,727.5,SBD,Single-ply,8
G. Pendlay,,110,Pure,,M,282.5,172.5,265,720,SBD,Single-ply,9
John Alberts,,110,Pure,,M,212.5,137.5,250,600,SBD,Single-ply,10
N. Young,,110,Pure,,M,287.5,,,,SBD,Single-ply,DQ
Earl Hammons,,110,Pure,,M,,,,,SBD,Single-ply,DQ
R. Foreman,,125,Pure,,M,352.5,185,302.5,840,SBD,Single-ply,1
D. Miller,,125,Pure,,M,320,167.5,312.5,800,SBD,Single-ply,2
J. Britton,,125,Pure,,M,310,215,242.5,767.5,SBD,Single-ply,3
J. Samarron,,125,Pure,,M,292.5,182.5,287.5,762.5,SBD,Single-ply,4
M. Cullen,,125,Pure,,M,305,155,292.5,752.5,SBD,Single-ply,5
R. Brown #7,,125,Pure,,M,275,160,275,710,SBD,Single-ply,6
T. Guiney,,125,Pure,,M,222.5,140,260,622.5,SBD,Single-ply,7
B. Tidwell,,125,Pure,,M,222.5,147.5,227.5,597.5,SBD,Single-ply,8
A. Hanback,,125,Pure,,M,202.5,107.5,177.5,487.5,SBD,Single-ply,9
M. Adelman,,125,Pure,,M,310,,,,SBD,Single-ply,DQ
Willie Tolbert,,125,Pure,,M,,,,,SBD,Single-ply,DQ
Victor Kennedy,,125+,Pure,,M,410,230,307.5,947.5,SBD,Single-ply,1
Shane Hamman,,125+,Pure,,M,377.5,200,305,882.5,SBD,Single-ply,2
G. Smith,,125+,Pure,,M,357.5,242.5,275,875,SBD,Single-ply,3
J. Sicoro,,125+,Pure,,M,372.5,207.5,262.5,842.5,SBD,Single-ply,4
R. Samarron,,125+,Pure,,M,332.5,192.5,287.5,812.5,SBD,Single-ply,5
Robert Burcham,,125+,Pure,,M,292.5,217.5,292.5,802.5,SBD,Single-ply,6
David Oyler,,125+,Pure,,M,305,157.5,277.5,740,SBD,Single-ply,7
C. Parker,,125+,Pure,,M,272.5,172.5,245,690,SBD,Single-ply,8
T. Lohrmann,,125+,Pure,,M,275,160,235,670,SBD,Single-ply,9
R. Rosas,,125+,Pure,,M,60,270,60,390,SBD,Single-ply,10
S. Meedlin,,56,Natural,,M,147.5,97.5,197.5,442.5,SBD,Single-ply,2
B. Caston,,56,Natural,,M,160,125,147.5,432.5,SBD,Single-ply,1
Ken Westbrook,,60,Natural,,M,237.5,110,220,567.5,SBD,Single-ply,1
Dave Wacker,,60,Natural,,M,185,107.5,200,492.5,SBD,Single-ply,2
M. Wideman,,60,Natural,,M,197.5,105,185,487.5,SBD,Single-ply,3
J. Uhrig,,60,Natural,,M,187.5,105,187.5,480,SBD,Single-ply,4
T. Vickers,,60,Natural,,M,167.5,107.5,172.5,447.5,SBD,Single-ply,5
Robert Trujillo,,60,Natural,,M,120,87.5,177.5,385,SBD,Single-ply,6
J. McElroy,,67.5,Natural,,M,227.5,142.5,235,605,SBD,Single-ply,1
L. Fleming,,67.5,Natural,,M,220,142.5,235,597.5,SBD,Single-ply,2
E. Vaughn,,67.5,Natural,,M,217.5,122.5,212.5,552.5,SBD,Single-ply,3
V. Brown,,67.5,Natural,,M,205,117.5,212.5,535,SBD,Single-ply,4
M. Waggoner,,67.5,Natural,,M,182.5,127.5,192.5,502.5,SBD,Single-ply,5
K. Avery,,67.5,Natural,,M,155,112.5,182.5,450,SBD,Single-ply,6
K. Hoston,,67.5,Natural,,M,252.5,,,,SBD,Single-ply,DQ
Kenneth Thomas,,75,Natural,,M,245,177.5,277.5,700,SBD,Single-ply,1
C. Easton,,75,Natural,,M,260,132.5,255,647.5,SBD,Single-ply,2
K. Matte,,75,Natural,,M,260,135,245,640,SBD,Single-ply,3
Louis Zamora,,75,Natural,,M,237.5,145,255,637.5,SBD,Single-ply,4
Mike Wonyetye,,75,Natural,,M,252.5,125,260,637.5,SBD,Single-ply,5
S. Umble,,75,Natural,,M,240,150,227.5,617.5,SBD,Single-ply,6
Tom Brinkey,,75,Natural,,M,240,142.5,230,612.5,SBD,Single-ply,7
R. Bell,,75,Natural,,M,232.5,140,227.5,600,SBD,Single-ply,8
D. Stump,,75,Natural,,M,230,132.5,232.5,595,SBD,Single-ply,9
C. Brown #2,,75,Natural,,M,215,145,212.5,572.5,SBD,Single-ply,10
C. DeFrancisco,,75,Natural,,M,232.5,125,215,572.5,SBD,Single-ply,11
F. Sanchez,,75,Natural,,M,197.5,130,222.5,550,SBD,Single-ply,12
F. Langhorst,,75,Natural,,M,195,137.5,212.5,545,SBD,Single-ply,13
Walter Thomas,,82.5,Natural,,M,305,190,285,780,SBD,Single-ply,1
M. Pilkerton,,82.5,Natural,,M,260,160,275,695,SBD,Single-ply,2
W. Teiecky,,82.5,Natural,,M,272.5,165,262.5,700,SBD,Single-ply,3
Sebastian Dokes,,82.5,Natural,,M,255,147.5,285,687.5,SBD,Single-ply,4
L. Rue,,82.5,Natural,,M,250,147.5,287.5,685,SBD,Single-ply,5
G. Titas,,82.5,Natural,,M,262.5,162.5,245,670,SBD,Single-ply,6
B. Stusarick,,82.5,Natural,,M,227.5,172.5,260,660,SBD,Single-ply,7
Bruce Jasperson,,82.5,Natural,,M,265,150,230,645,SBD,Single-ply,8
M. Jackson,,82.5,Natural,,M,250,142.5,250,642.5,SBD,Single-ply,9
A. Quinn,,82.5,Natural,,M,255,145,240,640,SBD,Single-ply,10
C. McClanahan,,82.5,Natural,,M,217.5,125,227.5,570,SBD,Single-ply,11
Mike Barber,,90,Natural,,M,310,177.5,310,797.5,SBD,Single-ply,1
Mike Ferrantelli,,90,Natural,,M,305,200,272.5,777.5,SBD,Single-ply,2
John Hoffmann,,90,Natural,,M,305,192.5,275,772.5,SBD,Single-ply,3
Scott Rittenberg,,90,Natural,,M,305,192.5,272.5,770,SBD,Single-ply,4
Mike Magee,,90,Natural,,M,310,177.5,272.5,760,SBD,Single-ply,5
Willie McCoy,,90,Natural,,M,277.5,167.5,310,755,SBD,Single-ply,6
D. Kauf,,90,Natural,,M,282.5,167.5,275,725,SBD,Single-ply,7
Bob Boyles,,90,Natural,,M,310,155,260,725,SBD,Single-ply,8
Joe Dentice,,90,Natural,,M,260,170,282.5,712.5,SBD,Single-ply,9
B. Henry,,90,Natural,,M,280,160,267.5,707.5,SBD,Single-ply,10
T. Orona,,90,Natural,,M,272.5,172.5,252.5,697.5,SBD,Single-ply,11
Michael Kvasnicka,,90,Natural,,M,237.5,165,292.5,695,SBD,Single-ply,12
Larry Hammond,,90,Natural,,M,272.5,147.5,275,695,SBD,Single-ply,13
T. Sacco,,90,Natural,,M,260,140,247.5,647.5,SBD,Single-ply,14
R. Morgan,,90,Natural,,M,245,120,220,585,SBD,Single-ply,16
V. Bestrick,,90,Natural,,M,272.5,155,205,632.5,SBD,Single-ply,15
John Znaczko,,90,Natural,,M,205,130,235,570,SBD,Single-ply,17
B. DeBusk,,90,Natural,,M,,,,,SBD,Single-ply,DQ
Michael Rennie,,100,Natural,,M,335,187.5,310,832.5,SBD,Single-ply,1
Michael Francis,,100,Natural,,M,322.5,175,305,802.5,SBD,Single-ply,2
Dave Gonzales,,100,Natural,,M,300,200,275,775,SBD,Single-ply,3
K. Hixon,,100,Natural,,M,287.5,182.5,252.5,722.5,SBD,Single-ply,4
M. Keese,,100,Natural,,M,272.5,175,272.5,720,SBD,Single-ply,5
R. King,,100,Natural,,M,272.5,162.5,265,700,SBD,Single-ply,6
B. Southerlin,,100,Natural,,M,247.5,175,272.5,695,SBD,Single-ply,7
R. Weber,,100,Natural,,M,277.5,152.5,262.5,692.5,SBD,Single-ply,8
M. Graves,,100,Natural,,M,275,175,240,690,SBD,Single-ply,9
T. Mitchell,,100,Natural,,M,250,157.5,250,657.5,SBD,Single-ply,10
C. Trasper,,100,Natural,,M,250,145,260,655,SBD,Single-ply,11
B. Cookson,,100,Natural,,M,227.5,145,250,622.5,SBD,Single-ply,12
J. Lewis,,100,Natural,,M,227.5,,,,SBD,Single-ply,DQ
Mark Northcutt,,100,Natural,,M,,,,,SBD,Single-ply,DQ
Kent Johnson,,100,Natural,,M,,,,,SBD,Single-ply,DQ
E. Payne,,100,Natural,,M,,,,,SBD,Single-ply,DQ
D. Connett,,110,Natural,,M,332.5,167.5,295,795,SBD,Single-ply,1
W. Davis,,110,Natural,,M,295,170,310,775,SBD,Single-ply,2
Scott Horning,,110,Natural,,M,297.5,200,267.5,765,SBD,Single-ply,3
D. Heidel,,110,Natural,,M,295,182.5,282.5,760,SBD,Single-ply,4
T. O'Donnell,,110,Natural,,M,277.5,182.5,277.5,737.5,SBD,Single-ply,5
John Hendrix,,110,Natural,,M,280,195,262.5,737.5,SBD,Single-ply,6
F. Sacco,,110,Natural,,M,270,155,285,710,SBD,Single-ply,8
L. Zeigler,,110,Natural,,M,260,200,237.5,697.5,SBD,Single-ply,9
D. Lafferty,,110,Natural,,M,262.5,182.5,277.5,722.5,SBD,Single-ply,7
A. Ortiz,,110,Natural,,M,250,155,227.5,632.5,SBD,Single-ply,10
L. Williams,,110,Natural,,M,240,152.5,227.5,620,SBD,Single-ply,11
J. King,,110,Natural,,M,242.5,127.5,235,605,SBD,Single-ply,12
T. Harrier,,110,Natural,,M,,,,,SBD,Single-ply,DQ
Scott Edmiston,,125,Natural,,M,347.5,215,320,882.5,SBD,Single-ply,1
William Nichols,,125,Natural,,M,375,200,295,870,SBD,Single-ply,2
Tom Allen,,125,Natural,,M,345,217.5,277.5,840,SBD,Single-ply,3
R. Foreman,,125,Natural,,M,352.5,185,302.5,840,SBD,Single-ply,4
A. Myers #3,,125,Natural,,M,277.5,182.5,290,750,SBD,Single-ply,5
A. Hanback,,125,Natural,,M,202.5,107.5,177.5,487.5,SBD,Single-ply,6
M. Adelman,,125,Natural,,M,,,,,SBD,Single-ply,DQ
Brett Russell,,125,Natural,,M,,,,,SBD,Single-ply,DQ
R. Bishop,,125+,Natural,,M,320,205,347.5,872.5,SBD,Single-ply,1
J. Green,,125+,Natural,,M,357.5,222.5,282.5,862.5,SBD,Single-ply,2
John Magee,,125+,Natural,,M,312.5,205,265,782.5,SBD,Single-ply,3
David Oyler,,125+,Natural,,M,305,157.5,277.5,740,SBD,Single-ply,4
J. Zedeker,,125+,Natural,,M,242.5,165,272.5,680,SBD,Single-ply,5
S. Undway,,125+,Natural,,M,262.5,132.5,217.5,612.5,SBD,Single-ply,6
J. Aragon,,52,Pure Novice,,M,137.5,87.5,160,385,SBD,Single-ply,1
K. Plumb,,52,Pure Novice,,M,112.5,77.5,160,350,SBD,Single-ply,2
James Sutherland,,56,Pure Novice,,M,167.5,107.5,165,440,SBD,Single-ply,1
J. Denton,,60,Pure Novice,,M,175,127.5,200,502.5,SBD,Single-ply,1
J. Longee,,60,Pure Novice,,M,165,107.5,175,447.5,SBD,Single-ply,2
G. Pierce,,67.5,Pure Novice,,M,207.5,135,212.5,555,SBD,Single-ply,1
V. Brown,,67.5,Pure Novice,,M,205,107.5,212.5,525,SBD,Single-ply,2
R. Annas,,67.5,Pure Novice,,M,205,102.5,200,507.5,SBD,Single-ply,3
J. Beck,,67.5,Pure Novice,,M,175,117.5,205,497.5,SBD,Single-ply,4
S. Berenberg,,67.5,Pure Novice,,M,182.5,117.5,197.5,497.5,SBD,Single-ply,5
S. Atshar,,67.5,Pure Novice,,M,182.5,117.5,180,480,SBD,Single-ply,6
Robert Trujillo,,67.5,Pure Novice,,M,170,92.5,207.5,470,SBD,Single-ply,7
C. Garcia,,75,Pure Novice,,M,215,135,220,570,SBD,Single-ply,1
T. Hylton,,75,Pure Novice,,M,197.5,127.5,227.5,552.5,SBD,Single-ply,2
W. Winfrey,,75,Pure Novice,,M,200,110,210,520,SBD,Single-ply,3
E. Douglas,,75,Pure Novice,,M,,,,,SBD,Single-ply,DQ
W. Sabia,,75,Pure Novice,,M,137.5,87.5,190,415,SBD,Single-ply,4
B. Slusrick,,82.5,Pure Novice,,M,227.5,172.5,260,660,SBD,Single-ply,1
R. Lucas,,82.5,Pure Novice,,M,227.5,162.5,232.5,622.5,SBD,Single-ply,2
J. Jouris,,82.5,Pure Novice,,M,227.5,132.5,227.5,587.5,SBD,Single-ply,3
C. McClanahan,,82.5,Pure Novice,,M,217.5,125,227.5,570,SBD,Single-ply,4
R. Guerrero,,82.5,Pure Novice,,M,215,135,212.5,562.5,SBD,Single-ply,5
D. Harris,,82.5,Pure Novice,,M,200,127.5,212.5,540,SBD,Single-ply,6
L. Duria,,82.5,Pure Novice,,M,192.5,135,207.5,535,SBD,Single-ply,7
D. Alsteen,,82.5,Pure Novice,,M,200,127.5,200,527.5,SBD,Single-ply,8
C. Moore,,82.5,Pure Novice,,M,185,107.5,205,497.5,SBD,Single-ply,9
W. Williamson,,82.5,Pure Novice,,M,225,125,,,SBD,Single-ply,DQ
A. Johnson,,82.5,Pure Novice,,M,,,,,SBD,Single-ply,DQ
N. Jodd,,90,Pure Novice,,M,245,180,237.5,662.5,SBD,Single-ply,1
E. Betza,,90,Pure Novice,,M,230,145,245,620,SBD,Single-ply,2
J. Cope,,90,Pure Novice,,M,237.5,150,230,617.5,SBD,Single-ply,3
D. Haddock,,90,Pure Novice,,M,200,167.5,242.5,610,SBD,Single-ply,4
James Toy,,90,Pure Novice,,M,220,147.5,230,597.5,SBD,Single-ply,5
S. Cook #1,,90,Pure Novice,,M,210,140,245,595,SBD,Single-ply,6
S. Holshouser,,90,Pure Novice,,M,187.5,140,232.5,560,SBD,Single-ply,7
J. Gardner,,90,Pure Novice,,M,205,132.5,200,537.5,SBD,Single-ply,8
B. Holmes,,90,Pure Novice,,M,192.5,125,210,527.5,SBD,Single-ply,9
C. Cox,,90,Pure Novice,,M,197.5,132.5,175,505,SBD,Single-ply,10
M. Cromartie,,100,Pure Novice,,M,295,172.5,295,762.5,SBD,Single-ply,1
H. Lee,,100,Pure Novice,,M,272.5,172.5,242.5,687.5,SBD,Single-ply,2
R. Moultry,,100,Pure Novice,,M,237.5,210,262.5,710,SBD,Single-ply,3
S. Klvela,,100,Pure Novice,,M,282.5,155.5,255,692.5,SBD,Single-ply,4
D. Frase,,100,Pure Novice,,M,265,147.5,272.5,685,SBD,Single-ply,5
W. Wilkins,,100,Pure Novice,,M,265,160,227.5,652.5,SBD,Single-ply,6
P. Jackson,,100,Pure Novice,,M,230,160,262.5,652.5,SBD,Single-ply,7
R. Roach,,100,Pure Novice,,M,252.5,142.5,242.5,637.5,SBD,Single-ply,8
A. Schrader,,100,Pure Novice,,M,242.5,152.5,232.5,627.5,SBD,Single-ply,9
D. Williamson,,100,Pure Novice,,M,205,187.5,235,627.5,SBD,Single-ply,10
R. Helbert,,100,Pure Novice,,M,262.5,135,227.5,625,SBD,Single-ply,11
B. Cookson,,100,Pure Novice,,M,227.5,145,250,622.5,SBD,Single-ply,12
L. Lewis,,100,Pure Novice,,M,207.5,155,215,577.5,SBD,Single-ply,13
K. Graham,,100,Pure Novice,,M,200,137.5,227.5,565,SBD,Single-ply,14
C. Graham,,100,Pure Novice,,M,162.5,142.5,225,530,SBD,Single-ply,15
P. Lindstrom,,100,Pure Novice,,M,187.5,135,207.5,530,SBD,Single-ply,16
B. Younts,,100,Pure Novice,,M,157.5,110,190,457.5,SBD,Single-ply,17
K. Berserker,,100,Pure Novice,,M,280,,,,SBD,Single-ply,DQ
E. Doubiln,,110,Pure Novice,,M,287.5,192.5,267.5,747.5,SBD,Single-ply,1
M. Sander,,110,Pure Novice,,M,225,162.5,245,632.5,SBD,Single-ply,2
D. Gumsey,,110,Pure Novice,,M,215,177.5,237.5,630,SBD,Single-ply,3
L. Williams,,110,Pure Novice,,M,240,152.5,227.5,620,SBD,Single-ply,4
E. Morejon,,110,Pure Novice,,M,227.5,140,240,607.5,SBD,Single-ply,5
K. Holder,,110,Pure Novice,,M,255,135,215,605,SBD,Single-ply,6
L. Becker,,125,Pure Novice,,M,325,175,320,820,SBD,Single-ply,1
M. Cullen,,125,Pure Novice,,M,305,155,292.5,752.5,SBD,Single-ply,2
R. Nugent,,125,Pure Novice,,M,262.5,152.5,232.5,647.5,SBD,Single-ply,3
T. Guiney,,125,Pure Novice,,M,222.5,140,260,622.5,SBD,Single-ply,4
J. Ward,,125,Pure Novice,,M,227.5,135,217.5,580,SBD,Single-ply,5
C. Burnett,,125,Pure Novice,,M,190,137.5,235,562.5,SBD,Single-ply,6
A. Hanback,,125,Pure Novice,,M,202.5,107.5,177.5,487.5,SBD,Single-ply,7
D. Matthew,,125,Pure Novice,,M,,,,,SBD,Single-ply,DQ
B. Phillips,,125+,Pure Novice,,M,320,192.5,235,747.5,SBD,Single-ply,1
A. Esposito,,125+,Pure Novice,,M,252.5,137.5,270,660,SBD,Single-ply,2
F. Yancey,,125+,Pure Novice,,M,142.5,187.5,142.5,472.5,SBD,Single-ply,3
D. Kennedy,,52,Submasters 33-39,33-39,M,155,90,152.5,397.5,SBD,Single-ply,1
B. Caston,,56,Submasters 33-39,33-39,M,160,125,147.5,432.5,SBD,Single-ply,1
Ken Westbrook,,60,Submasters 33-39,33-39,M,237.5,110,220,567.5,SBD,Single-ply,1
J. Lewis,,60,Submasters 33-39,33-39,M,175,92.5,182.5,450,SBD,Single-ply,2
Robert Trujillo,,60,Submasters 33-39,33-39,M,120,87.5,177.5,385,SBD,Single-ply,3
Carl Mustari,,67.5,Submasters 33-39,33-39,M,220,145,240,605,SBD,Single-ply,1
Brendon Rohan,,67.5,Submasters 33-39,33-39,M,175,130,217.5,522.5,SBD,Single-ply,2
Robert Trujillo,,67.5,Submasters 33-39,33-39,M,170,92.5,207.5,470,SBD,Single-ply,3
K. Avery,,67.5,Submasters 33-39,33-39,M,155,112.5,182.5,450,SBD,Single-ply,4
Mike Wonyetye,,75,Submasters 33-39,33-39,M,252.5,125,260,637.5,SBD,Single-ply,1
G. Boyd,,75,Submasters 33-39,33-39,M,247.5,125,247.5,620,SBD,Single-ply,2
D. Stump,,75,Submasters 33-39,33-39,M,230,132.5,232.5,595,SBD,Single-ply,3
C. Kunce,,75,Submasters 33-39,33-39,M,227.5,130,235,592.5,SBD,Single-ply,4
D. Mobley,,75,Submasters 33-39,33-39,M,,,,,SBD,Single-ply,DQ
Donnie Cole,,82.5,Submasters 33-39,33-39,M,305,137.5,285,727.5,SBD,Single-ply,1
C. Corden,,82.5,Submasters 33-39,33-39,M,265,162.5,255,682.5,SBD,Single-ply,2
S. Mutchelknaus,,82.5,Submasters 33-39,33-39,M,257.5,137.5,267.5,662.5,SBD,Single-ply,3
R. Sherwood,,82.5,Submasters 33-39,33-39,M,230,127.5,230,587.5,SBD,Single-ply,4
E. Rodrigues,,82.5,Submasters 33-39,33-39,M,220,130,227.5,577.5,SBD,Single-ply,5
D. Harris,,82.5,Submasters 33-39,33-39,M,200,127.5,212.5,540,SBD,Single-ply,6
I. Douria,,82.5,Submasters 33-39,33-39,M,192.5,135,207.5,535,SBD,Single-ply,7
D. Alsteeen,,82.5,Submasters 33-39,33-39,M,200,127.5,200,527.5,SBD,Single-ply,8
D. Zackery,,82.5,Submasters 33-39,33-39,M,,,,,SBD,Single-ply,DQ
J. Chandler,,90,Submasters 33-39,33-39,M,300,182.5,250,732.5,SBD,Single-ply,1
Bob Boyles,,90,Submasters 33-39,33-39,M,310,155,260,725,SBD,Single-ply,2
Joe Dentice,,90,Submasters 33-39,33-39,M,260,170,282.5,712.5,SBD,Single-ply,3
Michael Kvasnicka,,90,Submasters 33-39,33-39,M,237.5,165,292.5,695,SBD,Single-ply,4
N. Judd,,90,Submasters 33-39,33-39,M,245,180,237.5,662.5,SBD,Single-ply,5
G. Close,,90,Submasters 33-39,33-39,M,245,150,250,645,SBD,Single-ply,6
Mike Nichols,,90,Submasters 33-39,33-39,M,247.5,145,230,622.5,SBD,Single-ply,7
J. Cope,,90,Submasters 33-39,33-39,M,237.5,150,230,617.5,SBD,Single-ply,8
D. Haddock,,90,Submasters 33-39,33-39,M,200,167.5,242.5,610,SBD,Single-ply,9
James Toy,,90,Submasters 33-39,33-39,M,220,147.5,230,597.5,SBD,Single-ply,10
John Znaczko,,90,Submasters 33-39,33-39,M,205,130,235,570,SBD,Single-ply,11
S. Tresemar,,90,Submasters 33-39,33-39,M,197.5,127.5,205,530,SBD,Single-ply,12
J. Maters,,90,Submasters 33-39,33-39,M,180,120,227.5,527.5,SBD,Single-ply,13
P. Carey,,90,Submasters 33-39,33-39,M,227.5,,,,SBD,Single-ply,DQ
B. DeBusk,,90,Submasters 33-39,33-39,M,,,,,SBD,Single-ply,DQ
K. Hryb,,90,Submasters 33-39,33-39,M,,,,,SBD,Single-ply,DQ
Johnny Graham,,100,Submasters 33-39,33-39,M,320,167.5,312.5,800,SBD,Single-ply,1
C. Kincheloe,,100,Submasters 33-39,33-39,M,270,200,277.5,747.5,SBD,Single-ply,2
M. Keese,,100,Submasters 33-39,33-39,M,272.5,175,272.5,720,SBD,Single-ply,3
A. Shvinski,,100,Submasters 33-39,33-39,M,272.5,175,270,717.5,SBD,Single-ply,4
Tom Weeks,,100,Submasters 33-39,33-39,M,282.5,155,267.5,705,SBD,Single-ply,5
H. Lee,,100,Submasters 33-39,33-39,M,287.5,172.5,242.5,702.5,SBD,Single-ply,6
R. Striggon,,100,Submasters 33-39,33-39,M,262.5,165,270,697.5,SBD,Single-ply,7
Shawn Kivela,,100,Submasters 33-39,33-39,M,282.5,172.5,255,710,SBD,Single-ply,8
M. Graves,,100,Submasters 33-39,33-39,M,275,175,240,690,SBD,Single-ply,9
D. Frase,,100,Submasters 33-39,33-39,M,265,147.5,272.5,685,SBD,Single-ply,10
R. McCoy,,100,Submasters 33-39,33-39,M,260,162.5,247.5,670,SBD,Single-ply,11
L. Lewis,,100,Submasters 33-39,33-39,M,207.5,155,215,577.5,SBD,Single-ply,12
K. Graham,,100,Submasters 33-39,33-39,M,,,,,SBD,Single-ply,DQ
Maurice Smith,,110,Submasters 33-39,33-39,M,350,227.5,305,882.5,SBD,Single-ply,1
David Reece,,110,Submasters 33-39,33-39,M,332.5,237.5,292.5,862.5,SBD,Single-ply,2
Wayne Hammes,,110,Submasters 33-39,33-39,M,315,185,277.5,777.5,SBD,Single-ply,3
D. Heidel,,110,Submasters 33-39,33-39,M,295,182.5,282.5,760,SBD,Single-ply,4
T. O'Donnell,,110,Submasters 33-39,33-39,M,277.5,182.5,277.5,737.5,SBD,Single-ply,5
S. Langvardt,,110,Submasters 33-39,33-39,M,282.5,170,282.5,735,SBD,Single-ply,6
A. Ortiz,,110,Submasters 33-39,33-39,M,250,155,227.5,632.5,SBD,Single-ply,7
L. Williams,,110,Submasters 33-39,33-39,M,240,152.5,227.5,620,SBD,Single-ply,8
K. Holder,,110,Submasters 33-39,33-39,M,255,135,215,605,SBD,Single-ply,9
J. King,,110,Submasters 33-39,33-39,M,242.5,127.5,235,605,SBD,Single-ply,10
John Alberts,,110,Submasters 33-39,33-39,M,212.5,137.5,250,600,SBD,Single-ply,11
N. Young,,110,Submasters 33-39,33-39,M,287.5,,,,SBD,Single-ply,DQ
T. Harrier,,110,Submasters 33-39,33-39,M,,,,,SBD,Single-ply,DQ
Brad Kretsch,,125,Submasters 33-39,33-39,M,305,192.5,307.5,805,SBD,Single-ply,1
D. Miller,,125,Submasters 33-39,33-39,M,320,167.5,312.5,800,SBD,Single-ply,2
T. McCullough,,125,Submasters 33-39,33-39,M,305,180,287.5,772.5,SBD,Single-ply,3
J. Sullivan,,125,Submasters 33-39,33-39,M,230,165,215,610,SBD,Single-ply,4
D. Green,,125,Submasters 33-39,33-39,M,192.5,92.5,220,505,SBD,Single-ply,5
Willie Tolbert,,125,Submasters 33-39,33-39,M,,,,,SBD,Single-ply,DQ
G. Smith,,125+,Submasters 33-39,33-39,M,357.5,242.5,275,875,SBD,Single-ply,1
J. Zedeker,,125+,Submasters 33-39,33-39,M,242.5,165,272.5,680,SBD,Single-ply,2
T. Lohrman,,125+,Submasters 33-39,33-39,M,275,160,227.5,662.5,SBD,Single-ply,3
B. Ramsey,,125+,Submasters 33-39,33-39,M,235,155,242.5,632.5,SBD,Single-ply,4
Steve Lindway,,125+,Submasters 33-39,33-39,M,262.5,132.5,217.5,612.5,SBD,Single-ply,5
R. Brown #7,,125+,Submasters 33-39,33-39,M,295,190,,,SBD,Single-ply,DQ
J. Coy,,52,Teen,13-19,M,142.5,85,150,377.5,SBD,Single-ply,1
S. Medlin,,56,Teen,13-19,M,147.5,97.5,197.5,442.5,SBD,Single-ply,1
J. Longee,,60,Teen,13-19,M,165,107.5,175,447.5,SBD,Single-ply,1
J. Mann,,60,Teen,13-19,M,125,92.5,167.5,385,SBD,Single-ply,2
A. Yado,,67.5,Teen,13-19,M,130,87.5,150,367.5,SBD,Single-ply,1
B. Racca,,75,Teen,13-19,M,245,130,170,545,SBD,Single-ply,1
M. Austin,,75,Teen,13-19,M,192.5,140,192.5,525,SBD,Single-ply,2
C. Jensen,,75,Teen,13-19,M,170,132.5,190,492.5,SBD,Single-ply,3
J. Burkholder,,75,Teen,13-19,M,145,77.5,182.5,405,SBD,Single-ply,4
B. Plumblee,,75,Teen,13-19,M,100,60,107.5,267.5,SBD,Single-ply,5
R. Zeighami,,82.5,Teen,13-19,M,197.5,140,197.5,535,SBD,Single-ply,1
B. Keith,,82.5,Teen,13-19,M,175,112.5,197.5,485,SBD,Single-ply,2
H. Cox,,90,Teen,13-19,M,240,137.5,240,617.5,SBD,Single-ply,1
B. Holmes,,90,Teen,13-19,M,192.5,125,210,527.5,SBD,Single-ply,2
R. Nielson,,90,Teen,13-19,M,182.5,122.5,210,515,SBD,Single-ply,3
J. Wyrevann,,100,Teen,13-19,M,227.5,135,212.5,575,SBD,Single-ply,1
T. Shroyer,,100,Teen,13-19,M,120,77.5,122.5,320,SBD,Single-ply,2
S. Robbins,,125,Teen,13-19,M,272.5,157.5,235,665,SBD,Single-ply,1
R. Nugent,,125,Teen,13-19,M,262.5,152.5,232.5,647.5,SBD,Single-ply,2
Shane Hamman,,125+,Teen,13-19,M,377.5,200,305,882.5,SBD,Single-ply,1
Viet Tran,16,52,HS Pure,13-19,M,175,115,205,495,SBD,Single-ply,1
Hien Nguyen,,56,HS Pure,13-19,M,200,100,182.5,482.5,SBD,Single-ply,1
C. McGuire,,60,HS Pure,13-19,M,175,127.5,220,522.5,SBD,Single-ply,1
J. Longee,,60,HS Pure,13-19,M,165,107.5,175,447.5,SBD,Single-ply,2
J. Click,,60,HS Pure,13-19,M,137.5,80,137.5,355,SBD,Single-ply,3
B. Griffith,,75,HS Pure,13-19,M,212.5,125,212.5,550,SBD,Single-ply,1
D. Lyle,,75,HS Pure,13-19,M,205,135,205,545,SBD,Single-ply,2
M. Austin,,75,HS Pure,13-19,M,192.5,140,192.5,525,SBD,Single-ply,3
C. Jensen,,75,HS Pure,13-19,M,170,132.5,190,492.5,SBD,Single-ply,4
K. Counts,,75,HS Pure,13-19,M,145,120,165,430,SBD,Single-ply,5
R. Zeighami,,82.5,HS Pure,13-19,M,197.5,140,197.5,535,SBD,Single-ply,1
J. King,,90,HS Pure,13-19,M,272.5,147.5,245,665,SBD,Single-ply,1
H. Cox,,90,HS Pure,13-19,M,240,137.5,240,617.5,SBD,Single-ply,2
P. Maloney,,90,HS Pure,13-19,M,195,95,190,480,SBD,Single-ply,3
Jamie Wymann,,100,HS Pure,13-19,M,205,135,212.5,552.5,SBD,Single-ply,1
Jason Bonnick,,125+,HS Pure,13-19,M,340,172.5,227.5,740,SBD,Wraps,1
Don Moore,,56,Masters 40-49,40-49,M,155,107.5,165,427.5,SBD,Single-ply,1
Phillip Trujillo,,67.5,Masters 40-49,40-49,M,197.5,145,205,547.5,SBD,Single-ply,1
B. Williams,,67.5,Masters 40-49,40-49,M,155,97.5,197.5,450,SBD,Single-ply,2
G. Rich,,67.5,Masters 40-49,40-49,M,150,97.5,160,407.5,SBD,Single-ply,3
R. Bell,,75,Masters 40-49,40-49,M,232.5,140,227.5,600,SBD,Single-ply,1
C. Chestand,,75,Masters 40-49,40-49,M,210,142.5,212.5,565,SBD,Single-ply,2
B. Johnson,,75,Masters 40-49,40-49,M,180,120,182.5,482.5,SBD,Single-ply,3
Walter Thomas,,82.5,Masters 40-49,40-49,M,305,190,285,780,SBD,Single-ply,1
J. Hannah,,82.5,Masters 40-49,40-49,M,215,155,222.5,592.5,SBD,Single-ply,2
C. Dodd,,82.5,Masters 40-49,40-49,M,227.5,137.5,212.5,577.5,SBD,Single-ply,3
W. Murphy,,82.5,Masters 40-49,40-49,M,205,95,210,510,SBD,Single-ply,4
B. Scott,,82.5,Masters 40-49,40-49,M,182.5,107.5,192.5,482.5,SBD,Single-ply,5
L. Jensen,,82.5,Masters 40-49,40-49,M,120,167.5,175,462.5,SBD,Single-ply,6
D. Long,,90,Masters 40-49,40-49,M,242.5,147.5,277.5,667.5,SBD,Single-ply,1
J. Ayala,,90,Masters 40-49,40-49,M,255,142.5,217.5,615,SBD,Single-ply,2
B. Tabaka,,90,Masters 40-49,40-49,M,227.5,117.5,217.5,562.5,SBD,Single-ply,3
C. Antal,,90,Masters 40-49,40-49,M,220,125,215,560,SBD,Single-ply,4
L. Gossett,,90,Masters 40-49,40-49,M,185,110,200,495,SBD,Single-ply,5
Tom Piazza,,90,Masters 40-49,40-49,M,,,,,SBD,Single-ply,DQ
T. Hopper,,100,Masters 40-49,40-49,M,270,197.5,297.5,765,SBD,Single-ply,1
R. Harper,,100,Masters 40-49,40-49,M,250,155,287.5,692.5,SBD,Single-ply,2
R. Corbellini,,100,Masters 40-49,40-49,M,275,142.5,260,677.5,SBD,Single-ply,3
L. Kye,,100,Masters 40-49,40-49,M,272.5,150,237.5,660,SBD,Single-ply,4
G. Rnge,,100,Masters 40-49,40-49,M,237.5,135,230,602.5,SBD,Single-ply,5
R. Scholten,,100,Masters 40-49,40-49,M,,,,,SBD,Single-ply,DQ
James Hodges,,110,Masters 40-49,40-49,M,272.5,147.5,325,745,SBD,Single-ply,1
D. Rafferty,,110,Masters 40-49,40-49,M,262.5,182.5,250,695,SBD,Single-ply,2
R. Ellis,,110,Masters 40-49,40-49,M,,,,,SBD,Single-ply,DQ
Les Cheney,,125,Masters 40-49,40-49,M,272.5,187.5,260,720,SBD,Single-ply,1
W. Lips,,125,Masters 40-49,40-49,M,240,170,240,650,SBD,Single-ply,2
D. Young,,125,Masters 40-49,40-49,M,230,155,240,625,SBD,Single-ply,3
B. Tidwell,,125,Masters 40-49,40-49,M,222.5,137.5,227.5,587.5,SBD,Single-ply,4
Al Warner,,125,Masters 40-49,40-49,M,,,,,SBD,Single-ply,DQ
John Magee,,125+,Masters 40-49,40-49,M,312.5,205,265,782.5,SBD,Single-ply,1
B. Allen,,125+,Masters 40-49,40-49,M,245,152.5,240,637.5,SBD,Single-ply,2
J. Morgan,,67.5,Masters 50+,50-999,M,105,87.5,140,332.5,SBD,Single-ply,1
Roy Mason,,75,Masters 50+,50-999,M,115,32.5,215,362.5,SBD,Single-ply,1
J. Curtis,,82.5,Masters 50+,50-999,M,247.5,165,272.5,685,SBD,Single-ply,1
Fred Mullin,,82.5,Masters 50+,50-999,M,227.5,130,227.5,585,SBD,Single-ply,2
J. Dean,,82.5,Masters 50+,50-999,M,182.5,132.5,210,525,SBD,Single-ply,3
C. Miller,,82.5,Masters 50+,50-999,M,147.5,102.5,165,415,SBD,Single-ply,4
Daryl Johnson,,100,Masters 50+,50-999,M,265,152.5,260,677.5,SBD,Single-ply,1
E. Davis,,100,Masters 50+,50-999,M,235,127.5,,,SBD,Single-ply,DQ
J. Dure,,110,Masters 50+,50-999,M,250,120,257.5,627.5,SBD,Single-ply,1
P. Quartuccia,,110,Masters 50+,50-999,M,197.5,137.5,222.5,557.5,SBD,Single-ply,2
B. Shackelford,,110,Masters 50+,50-999,M,192.5,147.5,195,535,SBD,Single-ply,3
D. Schaan,,125,Masters 50+,50-999,M,165,117.5,192.5,475,SBD,Single-ply,1
D. Matthews,,125,Masters 50+,50-999,M,,,,,SBD,Single-ply,DQ
J. Hickory,,125+,Masters 50+,50-999,M,227.5,160,190,577.5,SBD,Single-ply,1
R. Buckley,,67.5,Special Olympics,,M,82.5,57.5,102.5,242.5,SBD,Single-ply,1
D. Francis,,90,Special Olympics,,M,92.5,62.5,130,285,SBD,Single-ply,1
J. Bower,,110,Special Olympics,,M,72.5,52.5,105,230,SBD,Single-ply,1
